Data visualization about US
…
Exercise 9

Compare the richest and poorest counties by obesity and unemployment.

Result: We cannot draw any conclusions given the lack of data.

## # A tibble: 197,529 x 5
##    CHSI_County_Name Population_Size Obesity Poverty Unemployed
##    <chr>                      <int>   <dbl>   <dbl>      <int>
##  1 Starr                      60941    NA      36.2       2764
##  2 Shannon                    13657    NA      35.6        283
##  3 Shannon                    13657    NA      35.6        457
##  4 Shannon                    13657    29.7    35.6        283
##  5 Shannon                    13657    29.7    35.6        457
##  6 East Carroll                8756    NA      33.9        399
##  7 Todd                        9882    29.2    33.7        369
##  8 Todd                        9882    29.2    33.7        638
##  9 Todd                        9882    29.2    33.7        221
## 10 Todd                        9882    29.7    33.7        369
## # ... with 197,519 more rows
…
## # A tibble: 197,529 x 5
##    CHSI_County_Name Population_Size Obesity Poverty Unemployed
##    <chr>                      <int>   <dbl>   <dbl>      <int>
##  1 Douglas                   249416    11.4     2.2       4893
##  2 Douglas                   249416    11.4     2.2       3181
##  3 Douglas                   249416    11.4     2.2        496
##  4 Douglas                   249416    11.4     2.2       2517
##  5 Douglas                   249416    11.4     2.2        741
##  6 Douglas                   249416    11.4     2.2        362
##  7 Douglas                   249416    11.4     2.2      12041
##  8 Douglas                   249416    11.4     2.2        971
##  9 Douglas                   249416    11.4     2.2       3835
## 10 Douglas                   249416    11.4     2.2         59
## # ... with 197,519 more rows
…
